[gd_scene load_steps=4 format=2]

[ext_resource path="res://sprites/CowboyBody.0001.png" type="Texture" id=1]
[ext_resource path="res://sprites/CowboyHat.0001.png" type="Texture" id=2]
[ext_resource path="res://sprites/CowMilkOrgan.0001.png" type="Texture" id=3]

[node name="Cowboy" type="Node2D"]

[node name="Body" type="Sprite" parent="."]
z_index = 2
texture = ExtResource( 1 )
centered = false
_sections_unfolded = [ "Offset", "Z Index", "texture" ]

[node name="Hat" type="Sprite" parent="Body"]
position = Vector2( 6.99442, -60.937 )
z_index = 3
texture = ExtResource( 2 )
centered = false
_sections_unfolded = [ "Offset", "Z Index", "texture" ]

[node name="Organ" type="Sprite" parent="Body"]
position = Vector2( 6.2682, 47.5601 )
rotation = 0.0567272
scale = Vector2( 1.05404, 0.971748 )
z_index = -1
texture = ExtResource( 3 )
centered = false
_sections_unfolded = [ "Offset", "Z Index", "texture" ]

