[gd_scene load_steps=2 format=2]

[ext_resource path="res://sprites/fenceStraight.0001.png" type="Texture" id=1]

[node name="Sprite" type="Sprite"]
z_index = 1
texture = ExtResource( 1 )
_sections_unfolded = [ "Z Index" ]

